<?xml version="1.0" standalone="no"?>
<!DOCTYPE svg PUBLIC "-//W3C//DTD SVG 1.1//EN" "http://www.w3.org/Graphics/SVG/1.1/DTD/svg11.dtd">
<svg xmlns="http://www.w3.org/2000/svg">
<metadata>Copyright (C) 2014 by original authors @ fontello.com</metadata>
<defs>
<font id="cns" horiz-adv-x="1000" >
<font-face font-family="cns" font-weight="400" font-stretch="normal" units-per-em="1000" ascent="850" descent="-150" />
<missing-glyph horiz-adv-x="1000" />
<glyph glyph-name="permisos" unicode="&#xe800;" d="m0 314q0 22 11 39 86 131 212 207t277 76q50 0 100-10l31 54q5 9 15 9 3 0 10-3t18-9 18-10 18-10 10-7q9-5 9-15 0-4 0-5-59-105-176-316t-176-316l-28-50q-5-9-15-9-7 0-75 39-9 6-9 16 0 7 25 48-80 37-147 97t-117 137q-11 17-11 38z m71 0q94-144 239-209l43 79q-48 35-76 88t-27 114q0 67 34 125-128-65-213-197z m259 72q0-11 8-19t19-8 19 8 8 19q0 48 34 82t82 34q11 0 19 8t8 19-8 19-19 7q-70 0-120-50t-50-119z m170-393l41 74q119 10 219 76t169 171q-65 100-158 164l35 63q53-36 102-86t81-102q11-19 11-39t-11-38q-22-36-61-81-84-96-194-149t-234-53z m89 159l157 281q4-26 4-47 0-78-44-142t-117-92z" horiz-adv-x="1000" />
<glyph glyph-name="selectores" unicode="&#xe801;" d="m0 404v35q0 23 16 38t38 16h178q22 0 38-16t16-38v-35q0-23-16-38t-38-16h-178q-23 0-38 16t-16 38z m71-465v375h143v-375q0-8-5-13t-13-5h-107q-7 0-13 5t-5 13z m0 590v232q0 8 5 13t13 5h107q8 0 13-5t5-13v-232h-143z m215-411v36q0 22 15 38t38 15h179q22 0 38-15t15-38v-36q0-22-15-38t-38-16h-179q-22 0-38 16t-15 38z m71-89h143v-90q0-8-5-13t-13-5h-107q-8 0-13 5t-5 13v90z m0 214v518q0 8 5 13t13 5h107q8 0 13-5t5-13v-518h-143z m214 303v36q0 22 16 38t38 16h179q22 0 38-16t15-38v-36q0-22-15-38t-38-15h-179q-22 0-38 15t-16 38z m72-607v518h143v-518q0-8-5-13t-13-5h-107q-8 0-13 5t-5 13z m0 732v90q0 8 5 13t13 5h107q8 0 13-5t5-13v-90h-143z" horiz-adv-x="857.1" />
<glyph glyph-name="facebook" unicode="&#xe802;" d="m0 82v536q0 66 47 113t114 48h535q67 0 114-48t47-113v-536q0-66-47-113t-114-48h-107v340h114l16 125h-130v80q0 30 16 46t53 16l74 1v115q-53 5-100 5-76 0-122-45t-46-126v-92h-125v-125h125v-340h-303q-67 0-114 48t-47 113z" horiz-adv-x="857.1" />
<glyph glyph-name="twitter" unicode="&#xe803;" d="m0 82v536q0 66 47 113t114 48h535q67 0 114-48t47-113v-536q0-66-47-113t-114-48h-535q-67 0-114 48t-47 113z m143 70q82-52 180-52 62 0 117 20t93 53 68 76 42 91 13 94q0 10 0 15 35 25 58 61-31-14-67-19 38 22 52 65-37-21-75-29-34 37-85 37-49 0-83-34t-35-83q0-16 3-27-72 4-135 37t-107 86q-16-28-16-59 0-64 51-98-27 1-56 15v-1q0-42 28-75t68-40q-16-5-28-5-7 0-22 2 12-35 42-58t67-23q-64-50-145-50-15 0-28 1z" horiz-adv-x="857.1" />
<glyph glyph-name="lapiz" unicode="&#xe804;" d="m718 680q32-32 47-64t15-48l0-16-252-252-290-288-238-52 50 240 290 288 252 252q54 12 126-60z m-494-640l24 24q-2 44-52 94-22 22-45 35t-35 13l-14 2-22-24-18-80q28-16 46-34 24-24 36-48z" horiz-adv-x="780" />
<glyph glyph-name="edificio-1" unicode="&#xe805;" d="m0-150h500v1000h-500v-1000z m313 875h125v-125h-125v125z m0-250h125v-125h-125v125z m0-250h125v-125h-125v125z m-250 500h125v-125h-125v125z m0-250h125v-125h-125v125z m0-250h125v-125h-125v125z m500 313h437v-63h-437z m0-688h125v250h187v-250h125v563h-437z" horiz-adv-x="1000" />
<glyph glyph-name="periodico" unicode="&#xe806;" d="m875 600v125h-875v-687c0-35 28-63 63-63h843c52 0 94 42 94 94v531h-125z m-62-562h-750v625h750v-625z m-688 500h625v-63h-625z m375-125h250v-63h-250z m0-125h250v-63h-250z m0-125h188v-63h-188z m-375 250h313v-313h-313z" horiz-adv-x="1000" />
<glyph glyph-name="caja" unicode="&#xe807;" d="m1217 806v-131q0-18-12-30t-31-13h-1131q-17 0-30 13t-13 30v131q0 17 13 30t30 13h1131q18 0 31-13t12-30z m-43-305v-609q0-17-13-30t-31-13h-1043q-18 0-31 13t-13 30v609q0 18 13 31t31 13h1043q18 0 31-13t13-31z m-304-152q0 27-19 46t-47 19h-391q-27 0-46-19t-19-46 19-46 46-19h391q27 0 47 19t19 46z" horiz-adv-x="1217" />
<glyph glyph-name="pluma" unicode="&#xe808;" d="m906 475l-281 281 94 94 281-281z m-312 188l219-219-125-344-563-250-40 40 336 337c6-1 11-2 17-2 34 0 62 28 62 63 0 34-28 62-62 62-35 0-63-28-63-62 0-6 1-11 2-17l-337-336-40 40 250 563 344 125z" horiz-adv-x="1000" />
<glyph glyph-name="video" unicode="&#xe809;" d="m77 594l845 226 48-181-845-226z m48-181v-563h875v563h-875z m313-438v313l250-157-250-156z" horiz-adv-x="1000" />
<glyph glyph-name="foto" unicode="&#xe80a;" d="m0 788v-938h1000v938h-1000z m875-688h-750v563h750v-563z m-62 188l-63 125-125-125-187 312-250-375v-62h625z" horiz-adv-x="1000" />
<glyph glyph-name="camara" unicode="&#xe80b;" d="m297 256c0-112 91-203 203-203s203 91 203 203-91 203-203 203-203-91-203-203z m641 344h-219c-16 63-31 125-94 125h-250c-62 0-78-62-94-125h-218c-35 0-63-28-63-62v-563c0-34 28-63 63-63h875c34 0 62 29 62 63v563c0 34-28 62-62 62z m-438-621c-153 0-277 124-277 277 0 153 124 278 277 278 153 0 277-125 277-278 0-153-124-277-277-277z m438 434h-125v62h125v-62z" horiz-adv-x="1000" />
<glyph glyph-name="libros" unicode="&#xe80c;" d="m563 568l237 79 199-592-237-80z m-563-593h250v688h-250v-688z m63 563h125v-63h-125v63z m250-563h250v688h-250v-688z m62 563h125v-63h-125v63z" horiz-adv-x="1000" />
<glyph glyph-name="curso" unicode="&#xe80d;" d="m188 276v-145c0-62 139-156 312-156 173 0 313 94 313 156v145l-313-156-312 156z m312 449l-500-250 500-250 406 203-31-265h63v281l62 31-500 250z m31-264c-25 0-45 20-45 45s20 46 45 46 46-21 46-46c0-25-21-45-46-45z" horiz-adv-x="1000" />
<glyph glyph-name="tag" unicode="&#xe80e;" d="m906 850h-282c-51 0-124-30-160-66l-437-437c-36-36-36-96 0-133l337-337c37-36 97-36 133 0l437 437c36 36 66 109 66 160v282c0 52-42 94-94 94z m-125-312c-51 0-93 42-93 93s42 94 93 94 94-42 94-94-42-93-94-93z" horiz-adv-x="1000" />
<glyph glyph-name="ayuda" unicode="&#xe80f;" d="m500 850c-276 0-500-224-500-500s224-500 500-500 500 224 500 500-224 500-500 500z m-187-500c0 104 83 188 187 188s188-84 188-188-84-187-188-187-187 83-187 187z m591-167v0l-173 71c12 30 19 62 19 96s-7 66-19 96l173 72c22-52 34-109 34-168s-12-116-34-167v0z m-236 571v0 0l-72-173c-30 12-62 19-96 19s-66-7-96-19l-71 173c51 22 108 34 167 34 59 0 116-12 168-34z m-572-236l173-72c-12-30-19-62-19-96s7-66 19-96l-173-71c-22 51-33 108-33 167s11 116 33 168z m237-572l71 173c30-12 62-19 96-19s66 7 96 19l72-173c-52-22-109-34-168-34-59 0-116 12-167 34z" horiz-adv-x="1000" />
<glyph glyph-name="filtro" unicode="&#xe810;" d="m0 850l1000 0-346-346 0-402-308-252 0 654z" horiz-adv-x="1000" />
<glyph glyph-name="reloj" unicode="&#xe811;" d="m643 118l-205 206v276h125v-224l169-169z m-143 732c-276 0-500-224-500-500s224-500 500-500 500 224 500 500-224 500-500 500z m0-875c-207 0-375 168-375 375s168 375 375 375c207 0 375-168 375-375 0-207-168-375-375-375z" horiz-adv-x="1000" />
<glyph glyph-name="brujula" unicode="&#xe812;" d="m500 850c-276 0-500-224-500-500s224-500 500-500 500 224 500 500-224 500-500 500z m0-906c-224 0-406 182-406 406s182 406 406 406 406-182 406-406-182-406-406-406z m94 500l-281 156h-63v-62l156-282 282-156h62v63l-156 281z m-94-156c-34 0-62 28-62 62s28 63 62 63c35 0 63-28 63-63 0-34-28-62-63-62z" horiz-adv-x="1000" />
<glyph glyph-name="credencial" unicode="&#xe813;" d="m875 663h-750c-69 0-125-57-125-125v-438c0-69 56-125 125-125h750c69 0 125 56 125 125v438c0 68-56 125-125 125z m-750-563c0 138 70 250 156 250-51 0-93 42-93 94s42 94 93 94 94-42 94-94-42-94-94-94 157-112 157-250h-313z m750 0h-312v63h312v-63z m0 188h-312v62h312v-62z m0 187h-312v63h312v-63z" horiz-adv-x="1000" />
<glyph glyph-name="admin" unicode="&#xe814;" d="m912 254c-53 91-21 207 70 260l-98 171c-28-17-61-26-95-26-105 0-191 85-191 191h-196c0-33-8-66-25-96-53-91-170-122-261-69l-98-170c28-16 52-40 70-70 52-91 21-207-70-260l98-170c28 16 61 25 95 25 105 0 190-85 190-190h197c0 32 8 65 25 95 53 91 169 122 260 69l99 171c-28 16-53 39-70 69z m-412-106c-112 0-202 90-202 202 0 112 90 203 202 203 112 0 203-91 203-203 0-112-91-202-203-202z" horiz-adv-x="1000" />
<glyph glyph-name="bajo" unicode="&#xe815;" d="m500 600c-276 0-500-224-500-500h63c0 114 50 216 130 284l212-264c-1-7-2-13-2-20 0-54 43-97 97-97 54 0 97 43 97 97s-43 97-97 97c-7 0-13 0-20-2l-261 210c61 44 137 70 219 70 207 0 375-168 375-375h187c0 276-224 500-500 500z" horiz-adv-x="1000" />
<glyph glyph-name="medio" unicode="&#xe816;" d="m500 600c-276 0-500-224-500-500h63c0 207 167 375 375 375 14 0 27-1 41-2l-32-292c-27-17-44-47-44-81 0-54 43-97 97-97s97 43 97 97c0 34-17 64-43 81l-32 285c166-39 291-188 291-366h187c0 276-224 500-500 500z" horiz-adv-x="1000" />
<glyph glyph-name="alto" unicode="&#xe817;" d="m813 100h187c0 276-224 500-500 500s-500-224-500-500h63c0 207 167 375 375 375 110 0 209-47 277-123l-195-157c-7 2-13 2-20 2-54 0-97-43-97-97s43-97 97-97c54 0 97 43 97 97 0 7 0 13-2 20l153 191c41-60 65-133 65-211z" horiz-adv-x="1000" />
<glyph glyph-name="portafolios" unicode="&#xe818;" d="m213 225h225v63h125v-63h224l213 213v100c0 34-28 62-62 62h-188l-125 125h-250l-125-125h-187c-35 0-63-28-63-62v-100l213-213z m188 438h198l63-63h-324l63 63z m412-500h-250v-63h-125v63h-250l-188 187v-375c0-34 28-63 63-63h875c34 0 62 29 62 63v375l-187-187z" horiz-adv-x="1000" />
<glyph glyph-name="bandera" unicode="&#xe819;" d="m813 682c74 0 141 40 187 71v-582c-46-30-113-71-187-71s-142 22-188 53c-46 31-113 53-187 53-75 0-142-38-188-69v582c46 31 113 69 188 69s141-23 187-53c46-31 113-53 188-53z m-688 168c35 0 63-28 63-62v-938h-125v938c0 34 28 62 62 62z" horiz-adv-x="1000" />
<glyph glyph-name="visible" unicode="&#xe81a;" d="m500 663c-218 0-407-127-500-313 93-185 282-312 500-312 218 0 407 127 500 312-93 186-282 313-500 313z m247-166c58-38 108-88 146-147-38-59-88-109-146-147-74-47-159-72-247-72-87 0-173 25-246 72-59 38-109 88-146 147 37 59 87 109 146 147 3 2 7 5 11 7-10-27-15-56-15-86 0-138 112-250 250-250s250 112 250 250c0 30-5 59-15 86 4-2 8-5 12-7z m-247-47c0-52-42-94-94-94s-93 42-93 94 42 93 93 93 94-42 94-93z" horiz-adv-x="1000" />
<glyph glyph-name="oculto" unicode="&#xe81b;" d="m820 561c76-54 138-126 180-211-93-185-282-312-500-312-61 0-120 10-175 28l76 76c32-7 66-11 99-11 88 0 173 25 247 72 58 38 108 88 146 147-37 57-84 106-141 143l68 68z m-320-393c-22 0-44 3-64 9l306 306c5-21 8-42 8-65 0-138-112-250-250-250z m438 682h-53l-214-214c-54 17-111 27-171 27-218 0-407-127-500-313 42-83 103-155 177-208l-177-177v-53h53l885 886v52z m-532-307c47 0 86-34 93-79l-107-107c-45 7-79 46-79 93 0 51 42 93 93 93z m-298-193c37 59 87 109 146 147 3 2 7 5 11 7-10-27-15-56-15-86 0-57 19-109 52-152l-58-57c-54 37-101 85-136 141z" horiz-adv-x="1000" />
<glyph glyph-name="warning" unicode="&#xe81c;" d="m9 27l429 786q9 17 26 27t36 10 36-10 27-27l428-786q20-35-1-70-10-17-26-26t-35-10h-858q-18 0-35 10t-26 26q-21 35-1 70z m411 519l9-255q0-5 6-9t13-3h103q8 0 13 3t6 9l10 257q0 6-5 10-7 6-14 6h-122q-7 0-14-6-5-4-5-12z m9-463q0-8 5-13t12-6h108q7 0 12 6t5 13v106q0 8-5 13t-12 5h-108q-7 0-12-5t-5-13v-106z" horiz-adv-x="1000" />
<glyph glyph-name="info" unicode="&#xe81d;" d="m454 810q190 2 326-130t140-322q2-190-131-327t-323-141q-190-2-327 131t-139 323q-4 190 130 327t324 139z m52-152q-42 0-65-24t-23-50q-2-28 15-44t49-16q38 0 61 22t23 54q0 58-60 58z m-120-594q30 0 84 26t106 78l-18 24q-48-36-72-36-14 0-4 38l42 160q26 96-22 96-30 0-89-29t-115-75l16-26q52 34 74 34 12 0 0-34l-36-152q-26-104 34-104z" horiz-adv-x="920" />
<glyph glyph-name="abrir" unicode="&#xe81e;" d="m678 793q86 0 146-61t61-147l0-156q0-21-15-37t-36-16-37 16-16 37l0 156q0 44-30 74t-73 30q-44 0-75-31t-30-73l0-105 52 0q43 0 73-31t31-73l0-365q0-42-31-73t-73-31l-521 0q-44 0-74 31t-30 73l0 365q0 43 30 73t74 31l156 0 0-51 209 0 0 156q0 86 61 147t148 61z m-313-744q28 0 48 20t20 47-20 48-48 20-47-20-20-48 20-47 47-20z" horiz-adv-x="885" />
<glyph glyph-name="cerrar" unicode="&#xe81f;" d="m625 480q43 0 73-31t31-73l0-365q0-42-31-73t-73-31l-521 0q-44 0-74 31t-30 73l0 365q0 43 30 73t74 31l52 0 0 105q0 86 62 147t147 61 147-61 61-147l0-105 52 0z m-260-431q28 0 48 20t20 47-20 48-48 20-47-20-20-48 20-47 47-20z m104 380l0 156q0 44-31 74t-73 30q-44 0-74-31t-31-73l0-156 209 0z" horiz-adv-x="729" />
<glyph glyph-name="escudo" unicode="&#xe820;" d="m0 314v429q0 14 11 25t25 11h643q14 0 25-11t10-25v-429q0-48-18-95t-47-84-66-71-70-57-68-43-50-28-23-11q-7-4-15-4t-14 4q-9 4-24 11t-50 28-68 43-70 57-66 71-46 84-19 95z m357-277q67 35 119 76 131 103 131 201v357h-250v-634z" horiz-adv-x="714.3" />
<glyph glyph-name="cancelar" unicode="&#xe821;" d="m61 112q0 23 16 38l164 164-164 164q-16 16-16 38t16 38l76 76q16 16 38 16t38-16l164-164 164 164q16 16 38 16t38-16l76-76q15-15 15-38t-15-38l-164-164 164-164q15-15 15-38t-15-38l-76-76q-16-15-38-15t-38 15l-164 164-164-164q-16-15-38-15t-38 15l-76 76q-16 16-16 38z" horiz-adv-x="785.7" />
<glyph glyph-name="ok" unicode="&#xe822;" d="m68 332q0 22 15 38l76 76q16 16 38 16t38-16l164-165 366 367q16 16 38 16t38-16l76-76q15-16 15-38t-15-38l-404-404-76-76q-16-15-38-15t-38 15l-76 76-202 202q-15 16-15 38z" horiz-adv-x="1000" />
<glyph glyph-name="enviar" unicode="&#xe823;" d="m0 276q-1 23 18 33l928 536q9 5 18 5 11 0 20-6 19-14 15-36l-142-857q-3-16-18-25-8-5-18-5-6 0-13 3l-253 103-135-164q-10-13-27-13-7 0-12 2-11 4-17 13t-7 21v194l482 591-596-516-221 91q-20 7-22 30z" horiz-adv-x="1000" />
<glyph glyph-name="detalles" unicode="&#xe824;" d="m0 8l186 186 2 0q-67 105-67 228 0 178 125 303t303 125 303-125 125-303-125-302-303-125q-106 0-197 48l-194-193z m311 415q0-98 70-168t168-69 168 69 70 168-70 168-168 70-168-70-70-168z" horiz-adv-x="977" />
<glyph glyph-name="spin" unicode="&#xe825;" d="m462 850c-6 0-11-5-11-11l0-183 0 0c0-6 5-11 11-11l69 0c1 0 1 0 1 0 7 0 12 5 12 11l0 183 0 0c0 6-5 11-12 11l-69 0c0 0 0 0-1 0z m250-47c-4 1-8-2-10-5l-91-158 0 0c-4-6-2-13 4-16l60-35c0 0 0 0 0 0 6-3 13-1 16 4l91 158c3 6 2 13-4 16l-61 35c-1 1-3 1-5 1z m-428-2c-2 0-4-1-6-2l-61-35c-5-3-7-10-4-16l91-157c0 0 0 0 0 0 3-6 10-8 16-5l61 35c5 4 7 11 4 16l-91 157c0 1 0 1 0 1-2 4-6 6-10 6z m620-163c-2 0-4 0-6-1l-157-91c0 0 0 0 0 0-6-3-8-10-5-16l35-61c4-5 11-7 16-4l157 91c1 0 1 0 1 0 6 3 7 10 4 16l-35 61c-2 3-6 5-10 5z m-810-4c-5 0-9-2-11-6l-35-61c-3-5-1-12 4-15l158-92 0 0c6-3 13-1 16 5l35 60c0 0 0 0 0 0 3 6 1 13-4 16l-158 91c-2 1-4 2-5 2z m712-235l0 0c-6 0-11-5-11-11l0-69c0-1 0-1 0-1 0-7 5-12 11-12l183 0 0 0c6 0 11 5 11 12l0 69c0 0 0 0 0 1 0 6-5 11-11 11l-183 0z m-794-5l0 0c-7 0-12-5-12-12l0-69c0 0 0 0 0-1 0-6 5-11 12-11l182 0 0 0c6 0 11 5 11 11l0 69c0 1 0 1 0 1 0 7-5 12-11 12l-182 0z m772-153c-4 0-8-2-10-6l-34-60c-1 0-1 0-1 0-3-6-1-13 4-16l158-91c6-3 13-2 16 4l35 61c3 5 1 12-4 15l-158 91 0 0c-2 1-4 2-6 2z m-566-5c-1 0-3 0-5-1l-157-91c0 0-1 0-1 0-5-3-7-11-4-16l35-61c3-5 10-7 16-4l157 91c0 0 0 0 0 0 6 3 8 10 5 16l-35 61c-3 3-7 5-11 5z m468-121c-2 0-4 0-6-1l-61-35c-5-4-7-11-4-16l91-157c0-1 0-1 0-1 3-6 11-7 16-4l61 35c5 3 7 10 4 16l-91 157c0 0 0 0 0 0-2 4-6 6-10 6z m-367-3c-4 1-8-2-10-5l-91-158c-3-6-1-13 4-16l61-35c5-3 12-1 15 4l92 158 0 0c3 6 1 13-5 16l-60 34c0 1 0 1 0 1-2 1-4 1-6 1z m149-57c-7 0-12-5-12-11l0-183 0 0c0-6 5-11 12-11l69 0c0 0 0 0 1 0 6 0 11 5 11 11l0 183 0 0c0 6-5 11-11 11l-69 0c-1 0-1 0-1 0z" horiz-adv-x="1000" />
<glyph glyph-name="usuario" unicode="&#xe826;" d="m0 66q0 30 2 58t8 61 15 60 24 55 34 45 48 30 62 11q5 0 24-12t41-27 60-27 75-12 74 12 61 27 41 27 24 12q34 0 62-11t48-30 34-45 24-55 15-60 8-61 2-58q0-67-41-106t-108-39h-488q-67 0-108 39t-41 106z m179 498q0 89 62 152t152 63 151-63 63-152-63-151-151-63-152 63-62 151z" horiz-adv-x="785.7" />
<glyph glyph-name="password" unicode="&#xe827;" d="m183 455q0 107 76 183t184 77 183-77 77-183-77-185-183-77l-130 0 0-103-104 0 0-104-105 0q-43 0-73 22t-31 55l0 79 206 205q-23 51-23 108z m260-105q42 0 73 31t32 74-31 73-74 30q-43 0-74-30t-30-73q0-44 30-75t74-30z" horiz-adv-x="703" />
<glyph glyph-name="guardar" unicode="&#xe828;" d="m658 750l142-156 0-544q0-40-29-70t-71-30l-600 0q-40 0-70 30t-30 70l0 600q0 42 30 71t70 29l558 0z m-58-300l0 250-400 0 0-250q0-20 15-35t35-15l300 0q20 0 35 15t15 35z m-50 200l0-200-100 0 0 200 100 0z" horiz-adv-x="800" />
<glyph glyph-name="femenino" unicode="&#xe829;" d="m447 293c-39-39-86-62-136-72v-80h54v0c4 0 8 0 12-4s4-8 4-12v-68c0-8-8-16-16-16v0h-54v-66 0c0-8-8-16-16-16v0h-68v0 0h-4v0c-8 2-12 8-12 16v0 66h-53v0c-8 0-15 8-15 16v0 68 0c0 4 0 8 4 12s7 4 11 4v0h53v80c-49 10-98 35-135 72-101 102-101 270 0 372s270 101 371 0 102-270 0-372z m-185 24c90 0 162 72 162 162s-72 162-162 162-162-72-162-162 72-162 162-162z" horiz-adv-x="523.4" />
<glyph glyph-name="masculino" unicode="&#xe82a;" d="m668 666v0-207 0c0-7-8-15-16-15h-68c-8 0-16 8-16 15v55l-89-90c27-41 44-90 44-144 0-145-117-262-261-262s-262 117-262 262 117 261 262 261c54 0 105-17 148-46l86 87h-51v0c-7 0-15 8-15 16v0 0 68c0 8 8 16 15 16v0h207v0c8 0 16-8 16-16v0z m-406-548c90 0 162 72 162 162s-72 162-162 162-162-72-162-162 72-162 162-162z" horiz-adv-x="668" />
<glyph glyph-name="combinar" unicode="&#xe82b;" d="m145 227l86 88 107-108-106-105c-7-14-23-23-41-23v0h-169v0c-10 2-18 9-20 19h-2v109h2c2 12 12 22 23 22 2 0 4-2 6-2h114z m753 314c4-1 4-5 4-9v0c0-4 0-8-4-10l-185-135c-4-2-10-2-14 0s-8 8-8 12v58h-103l-74-72-106 106 106 105v0c8 6 19 12 29 12v0h148v57c0 3 4 9 8 11s8 0 12-2z m-1-363c3-2 5-6 5-10v0c0-3-2-7-5-9l-186-133c-4-2-10-4-14-2s-6 8-6 12v56h-150v0c-10 0-19 6-27 12v0l-369 369h-114c-2 0-4-2-6-2-11 0-23 10-25 22v0 109 0c2 10 12 18 22 20v0h169v0c18 0 34-10 41-24l356-355h103v58c0 4 2 10 6 12s10 2 14 0z" horiz-adv-x="902.3" />
<glyph glyph-name="derecha" unicode="&#xe82c;" d="m188 850l500-500-500-500-188 188 313 312-313 313z" horiz-adv-x="750" />
<glyph glyph-name="izquierda" unicode="&#xe82d;" d="m500 850l188-187-313-313 313-312-188-188-500 500z" horiz-adv-x="750" />
<glyph glyph-name="abajo" unicode="&#xe82e;" d="m188 600l312-312 313 312 187-187-500-501-500 501z" horiz-adv-x="1000" />
<glyph glyph-name="arriba" unicode="&#xe82f;" d="m500 600l500-500-187-188-313 313-312-313-188 188z" horiz-adv-x="1000" />
<glyph glyph-name="borrar" unicode="&#xe830;" d="m572 516c14 0 24-10 24-23v-500c0-14-10-24-24-24h-517c-14 0-24 10-24 24v500c0 13 10 23 24 23h517z m32 160c13 0 23-10 23-23v-69c0-13-10-25-23-25h-581c-13 0-23 12-23 25v69c0 13 10 23 23 23h198v31c0 14 10 24 23 24h141c13 0 23-10 23-24v-31h196z" horiz-adv-x="627" />
<glyph glyph-name="grafica" unicode="&#xe831;" d="m377 248c8 0 16-7 16-15v-219c0-8-8-16-16-16h-141c-7 0-15 8-15 16v219c0 8 8 15 15 15h141z m221 454c8 0 15-8 15-16v-672c0-8-7-16-15-16h-141c-8 0-16 8-16 16v672c0 8 8 16 16 16h141z m222-205c8 0 14-6 14-14v-469c0-8-6-16-14-16h-142c-8 0-16 8-16 16v469c0 8 8 14 16 14h142z m-664 0c8 0 16-6 16-14v-469c0-8-8-16-16-16h-140c-8 0-16 8-16 16v469c0 8 8 14 16 14h140z" horiz-adv-x="834" />
<glyph glyph-name="hombre" unicode="&#xe832;" d="m0 225v232q0 45 31 76t76 31h357q45 0 76-31t31-76v-232q0-22-15-38t-38-16-38 16-16 38v196h-35v-509q0-25-19-44t-44-18-44 18-18 44v259h-36v-259q0-25-19-44t-44-18-44 18-18 44v509h-36v-196q0-22-15-38t-38-16-38 16-16 38z m161 482q0 52 36 89t89 36 88-36 37-89-37-88-88-37-89 37-36 88z" horiz-adv-x="571.4" />
<glyph glyph-name="bocina" unicode="&#xe833;" d="m148 565c16 0 28-12 28-27v-248 0c-2-14-14-24-28-24-82 0-148 68-148 150s66 149 148 149z m604 121v0 0-47-461-45 0-4c0-15-12-27-27-27-8 0-14 4-18 8l-262 150h-191c-14 0-25 12-27 26v0 257c0 16 11 28 27 28h215l240 136c4 4 10 6 16 6 15 0 27-11 27-27z m-314-631v0c5-12 3-25-6-33v-2l-51-27v0c-2-2-2-4-4-4-12-8-27-2-35 9v0l-2 2v0 0l-96 166v2s-2 0-2 2c-8 14-4 30 10 37 4 2 8 4 12 4v0h72v0c8 0 14-5 18-11v0l84-143v-2 0 0z" horiz-adv-x="752" />
<glyph glyph-name="personas" unicode="&#xe834;" d="m96 653c0 54 27 82 82 82s84-28 84-82-30-82-84-82-82 27-82 82z m240-106c10-2 18-4 23-11s12-16 12-26v-234 0c0-10-6-20-12-26s-13-9-23-9-20 4-25 9-10 16-10 26v0 160 2c0 8-4 12-12 12s-12-4-12-12v-2-104-107-215c0-12-4-21-11-29s-16-12-28-12-21 4-29 12-12 17-12 29v215 0c0 8-4 12-11 12s-12-4-12-12v0-215c0-12-4-21-12-29s-17-12-29-12-22 4-29 12-12 17-12 29v322 104 2 0c0 8-2 12-10 12s-12-4-12-12v0-2-160 0c0-10-4-20-9-26s-16-9-26-9-19 4-25 9-10 16-10 26v0 234 0c0 10 4 20 12 28s17 9 27 9v0h297v0z m260 106c0 54 27 82 82 82s84-28 84-82-30-84-84-84-82 29-82 84z m314-344v0-6c0-6 0-12-4-17s-8-10-13-14-12-4-18-4c-16 0-27 6-33 22v0l-41 152v0c-2 6-4 8-10 8-8 0-12-2-12-10v-4 0l65-242c2-2 2-6 2-8h2-2 2c0-12-8-20-20-20h-49v-160c0-12-4-21-11-29s-18-12-30-12-21 4-29 12-12 17-12 29v160h-23v-160c0-8-2-15-6-21s-8-12-14-16-13-4-21-4c-12 0-22 4-29 12s-12 17-12 29v160h-47c-12 0-20 8-20 20v0 0 0c0 2 0 6 2 8l65 242v2 2 0 2 0c-2 6-4 8-10 8s-10-2-12-8v0 0l-41-152v0c-6-16-17-22-33-22-10 0-17 2-25 10s-10 15-10 25v6 0l57 207v0 4 0c5 18 17 27 37 27v0h261v0 0c20 0 32-9 38-27v0l2-4v0z" horiz-adv-x="910.2" />
<glyph glyph-name="adjunto" unicode="&#xe835;" d="m624 725c64 0 127-25 176-74 98-97 98-253 0-351l-312-305c-60-60-159-60-219 0s-60 159 0 219l120 121 86-86-112-118-9-3c-13-13-13-35 0-48s35-12 47 0l313 309c46 50 49 127 0 176s-130 50-180 0l-348-344c-82-86-85-224 0-309 87-86 227-86 313 0l11 15 145 142 86-87-156-156c-134-134-351-134-485 0s-134 352 0 485l348 340c48 49 112 74 176 74z" horiz-adv-x="875" />
<glyph glyph-name="ubicacion" unicode="&#xe836;" d="m375 850c208 0 375-167 375-375 0-250-375-625-375-625s-375 375-375 625c0 208 168 375 375 375z m0-125c-137 0-250-112-250-250s113-250 250-250 250 113 250 250-112 250-250 250z" horiz-adv-x="750" />
<glyph glyph-name="correo" unicode="&#xe837;" d="m0 11v443q25-28 56-49 202-137 278-192 32-24 51-37t53-27 61-13h2q28 0 61 13t53 27 51 37q95 68 278 192 32 22 56 49v-443q0-37-26-63t-63-27h-822q-36 0-63 27t-26 63z m0 595q0 43 23 72t66 29h822q36 0 62-26t27-63q0-44-27-84t-68-69q-210-146-262-181-5-4-23-17t-30-22-29-18-33-15-27-5h-2q-12 0-27 5t-33 15-29 18-30 22-23 17q-51 35-147 101t-114 80q-35 23-65 64t-31 77z" horiz-adv-x="1000" />
<glyph glyph-name="usuarios" unicode="&#xe838;" d="m0 367q0 197 69 197 4 0 25-11t54-24 66-12q38 0 75 13-3-21-3-37 0-78 45-143-90-3-148-72h-75q-45 0-77 23t-31 66z m71 340q0 59 42 101t101 42 101-42 42-101-42-101-101-42-101 42-42 101z m72-713q0 30 2 58t8 61 14 61 24 54 35 45 48 30 62 11q6 0 24-12t41-26 59-27 76-12 75 12 60 27 41 26 23 12q35 0 63-11t47-30 35-45 24-54 15-61 8-61 2-58q0-66-41-105t-108-39h-488q-68 0-108 39t-41 105z m178 499q0 89 63 151t152 63 151-63 63-151-63-152-151-63-152 63-63 152z m393 214q0 59 42 101t101 42 101-42 42-101-42-101-101-42-101 42-42 101z m27-357q45 65 45 143 0 16-3 37 37-13 74-13 33 0 67 12t54 24 24 11q69 0 69-197 0-43-31-66t-77-22h-75q-57 68-147 71z" horiz-adv-x="1071.4" />
<glyph glyph-name="mujer" unicode="&#xe839;" d="m0 261q0 16 9 29l143 215q41 59 98 59h214q58 0 99-59l142-215q9-13 9-29 0-23-15-38t-38-16q-29 0-45 24l-127 190h-25v-73l138-230q5-8 5-18 0-14-10-25t-26-11h-107v-151q0-26-18-45t-44-18h-89q-26 0-45 18t-18 45v151h-107q-15 0-25 11t-11 25q0 10 5 18l138 230v73h-25l-127-190q-16-24-44-24-23 0-38 16t-16 38z m232 446q0 52 37 89t88 36 89-36 36-89-36-88-89-37-88 37-37 88z" horiz-adv-x="714.3" />
<glyph glyph-name="mundo" unicode="&#xe83a;" d="m0 350q0 117 58 215t155 156 216 58 215-58 156-156 57-215-57-215-156-156-215-58-216 58-155 156-58 215z m126 189q4-4 7-4 2-1 3-5t1-6 6 1q5-4 2-10 1 0 25-15 10-10 11-12 2-6-5-10-1 1-5 5t-5 2q-2-3 0-10t6-7q-4 0-5-9t-2-20 0-13l1-1q-2-6 3-19t12-11q-7-1 11-24 3-4 4-5 2-1 7-4t9-6 5-5q2-3 6-13t8-13q-2-3 5-11t6-13q-1 0-2-1t-1 0q2-4 9-8t8-7q1-2 1-6t2-6 4-1q2 11-13 34-8 14-9 17-2 2-4 8t-2 8q1 0 3 0t5-2 4-3 1-1q-1-4 1-10t7-10 10-11 6-7q4-4 8-11t0-8q5 0 11-5t10-11q3-5 4-15t3-13q1-4 5-8t7-5l9-5t7-3q3-2 10-6t12-7q6-2 9-2t8 1 8 2q8 1 16-8t12-12q20-10 30-6-1 0 1-4t4-9 5-8 3-5q3-3 10-8t10-8q4 2 4 5-1-5 4-11t10-6q8 2 8 18-17-9-27 10 0 0-2 3t-2 5-1 4 0 5 2 1q5 0 6 2t-1 7-2 8q-1 4-6 11t-7 8q-3-5-9-4t-9 5q0-1-1-3t-1-4q-7 0-8 0 1 2 1 10t2 13q1 2 3 6t5 9 2 7-3 5-9 1q-11 0-15-11-1-2-2-6t-2-6-5-4q-4-2-14-1t-13 3q-8 4-13 16t-5 20q0 6 1 15t2 14-3 14q2 1 5 5t5 6q2 1 3 1t2 0 3 1 1 3q0 1-2 2-2 1-2 1 4-1 16 1t15-1q9-6 12 1 0 1-1 6t0 7q3-15 16-5 2-1 9-3t9-2q2-1 4-3t3-3 3 0 5 4q5-8 7-13 6-23 10-25 4-2 6-1t3 5 0 8-1 7l-1 4v11l0 4q-8 2-10 7t0 10 9 10q0 1 4 2t9 4 7 4q12 11 8 20 4 0 6 5 0 0-2 2t-5 2-2 2q5 2 1 8 3 2 4 7t4 5q5-7 12-1 4 5 1 9 2 4 11 6t10 5q4-1 5 1t0 7 2 7q2 2 8 5t8 2l9 7q2 2 0 2 10-1 18 6 5 6-4 11 2 3-2 5t-8 3q2 1 7 1t5 1q9 5-4 9-9 2-24-7-1-1-5-5t-7-6q1 0 2 3t3 6 2 4q3 4 12 8 8 4 29 7 19 5 29-6-1 1 5 7t8 7q2 1 8 2t9 5l1 12q-7-1-10 4t-3 12q0-2-4-5 0 4-2 5t-7-1-5-1q-5 2-8 5t-5 9-2 8q-1 3-5 6t-5 6q-1 1-2 3t-2 4-2 3-3 1-4-3-4-5-2-3q-2 1-4 1t-2-1-3-1-3-2q-1-2-4-2t-5-1q8 3-1 6-5 2-9 2 5 2 5 6t-5 8h3q-1 2-5 5t-10 5-7 3q-5 3-19 5t-18 1q-3-4-3-6t2-8 2-7q1-3-3-7t-3-7q0-4 7-9t6-12q-2-4-9-9t-9-6q-3-5-1-11t6-9q1-1 1-2t-2-3-3-2-4-2l-1-1q-7-3-12 3t-7 15q-4 14-9 17-13 4-17-1-2 7-22 15-14 5-33 2 4 0 0 8-4 9-10 7 1 3 2 10t0 7q2 7 7 13 1 1 4 5t5 7 1 4q19-3 28 6 2 3 6 9t6 10q5 3 8 3t8-3 8-3q8-1 8 6t-4 11q7 0 2 10-3 4-5 5-6 2-15-3-4-2 2-4-1 0-6-6t-9-10-9 3q0 0-3 7t-5 8q-5 0-9-9 1 5-6 9t-14 4q11 7-4 15-4 3-12 3t-11-2q-2-4-3-7t3-4 6-3 6-2 5-2q8-6 5-8-1 0-5-2t-6-2-4-3q-2-2 0-7t-1-8q-3 3-5 10t-4 9q4-5-14-4l-5 1q-3 0-9-1t-12-1-7 5q-3 4 0 11 0 2 2 1-2 2-6 5t-6 5q-25-8-52-23 3 0 6 1 3 1 8 3t5 4q19 7 24 3l3 3q7-9 11-14-4 3-17 1-11-4-12-7 4-7 2-10-2 2-6 6t-8 6-8 3q-9 0-13-1-81-45-131-124z m363-532q0-3 2-9 114 21 195 106-1 2-7 2t-7 2q-10 4-13 5 1 4-1 7t-5 5-7 5-6 4q-1 1-4 3t-4 3-4 2-5 2-5-1l-2-1q-2 0-3-1t-3-2-2-1 0-2q-12 10-20 13-3 0-7 3t-5 4-6 0-6-4q-3-2-4-8t-1-7q-4 3 0 10t1 10q-1 3-6 2t-6-2-7-5-5-3-4-3-5-5q-2-2-4-6t-2-7q-1 3-7 4t-5 3q1-5 2-19t3-22q4-17-7-26-15-14-16-23-2-12 7-14 0-4-5-12t-4-12z" horiz-adv-x="857.1" />
<glyph glyph-name="inbox" unicode="&#xe83b;" d="m0 29v269q0 34 14 68l133 308q5 14 20 24t29 9h465q14 0 29-9t20-24l133-308q14-34 14-68v-269q0-15-10-26t-26-10h-785q-15 0-25 10t-11 26z m110 285h176l53-107h179l53 107h176q0 2-1 5t-2 4l-118 277h-395l-118-277q-1-1-2-4t-1-5z" horiz-adv-x="857.1" />
<glyph glyph-name="copiar" unicode="&#xe83c;" d="m0 46v750q0 23 16 38t38 16h607q22 0 38-16t15-38v-183q12-7 20-15l228-228q16-16 27-42t11-50v-374q0-23-16-38t-38-16h-535q-23 0-38 16t-16 38v89h-303q-23 0-38 15t-16 38z m143 679q0-7 5-13t13-5h393q7 0 12 5t5 13v36q0 7-5 12t-12 5h-393q-7 0-13-5t-5-12v-36z m286-804h500v358h-233q-22 0-38 15t-15 38v232h-214v-643z m285 429h167l-167 167v-167z" horiz-adv-x="1000" />
<glyph glyph-name="switch" unicode="&#xe83d;" d="m0 350q0 102 45 191t126 151q24 18 54 14t46-28q18-23 14-53t-28-47q-54-41-84-101t-30-127q0-58 22-111t62-91 91-61 111-23 110 23 92 61 61 91 22 111q0 68-30 127t-84 101q-24 18-28 47t14 53q17 24 47 28t53-14q81-61 126-151t45-191q0-87-34-166t-91-137-137-92-166-34-167 34-136 92-92 137-34 166z m357 71v358q0 29 21 50t51 21 50-21 21-50v-358q0-29-21-50t-50-21-51 21-21 50z" horiz-adv-x="857.1" />
<glyph glyph-name="edificio" unicode="&#xe83e;" d="m0-79q0 15 11 25t28 11h994q16 0 27-11t11-25v-71h-1071v71z m0 643v72l536 214 535-214v-72h-71q0-14-11-25t-28-10h-851q-16 0-27 10t-12 25h-71z m71-571v36q0 14 12 25t27 10h33v429h143v-429h71v429h143v-429h71v429h143v-429h72v429h143v-429h32q16 0 28-10t11-25v-36h-929z" horiz-adv-x="1142.9" />
<glyph glyph-name="database" unicode="&#xe83f;" d="m0-7v95q66-47 181-71t248-24 247 24 181 71v-95q0-39-57-72t-157-52-214-19-215 19-156 52-58 72z m0 214v95q66-47 181-71t248-24 247 24 181 71v-95q0-38-57-71t-157-52-214-20-215 20-156 52-58 71z m0 214v95q66-47 181-71t248-24 247 24 181 71v-95q0-38-57-71t-157-52-214-20-215 20-156 52-58 71z m0 215v71q0 39 58 72t156 52 215 19 214-19 157-52 57-72v-71q0-39-57-72t-157-52-214-19-215 19-156 52-58 72z" horiz-adv-x="857.1" />
<glyph glyph-name="textoinvertido" unicode="&#xe840;" d="m0-96v892q0 23 16 38t38 16h446v-304q0-22 16-38t38-15h303v-589q0-23-15-38t-38-16h-750q-23 0-38 16t-16 38z m214 178q0-8 5-13t13-5h393q8 0 13 5t5 13v36q0 8-5 13t-13 5h-393q-8 0-13-5t-5-13v-36z m0 143q0-8 5-13t13-5h393q8 0 13 5t5 13v36q0 8-5 13t-13 5h-393q-8 0-13-5t-5-13v-36z m0 143q0-8 5-13t13-5h393q8 0 13 5t5 13v36q0 7-5 12t-13 5h-393q-8 0-13-5t-5-12v-36z m357 196v264q13-8 21-16l227-228q8-7 16-20h-264z" horiz-adv-x="857.1" />
<glyph glyph-name="wizard" unicode="&#xe841;" d="m15 82q0 15 10 25l718 718q10 10 25 10t25-10l110-111q10-10 10-25t-10-25l-717-718q-10-10-25-10t-25 10l-111 111q-10 10-10 25z m56 697l55 16 17 55 17-55 54-16-54-17-17-55-17 55z m108-108l109 34 33 109 34-109 109-34-109-33-34-109-33 109z m250 108l54 16 17 55 17-55 54-16-54-17-17-55-17 55z m175-194l60-59 164 163-60 60z m182-164l54 17 17 55 17-55 55-17-55-16-17-55-17 55z" horiz-adv-x="928.6" />
<glyph glyph-name="estructura" unicode="&#xe842;" d="m0-25v179q0 22 16 38t38 15h53v107q0 29 21 51t51 21h285v107h-53q-23 0-38 15t-16 38v179q0 22 16 38t38 16h178q23 0 38-16t16-38v-179q0-22-16-38t-38-15h-53v-107h285q29 0 51-21t21-51v-107h53q23 0 38-15t16-38v-179q0-22-16-38t-38-16h-178q-22 0-38 16t-16 38v179q0 22 16 38t38 15h53v107h-285v-107h53q23 0 38-15t16-38v-179q0-22-16-38t-38-16h-178q-23 0-38 16t-16 38v179q0 22 16 38t38 15h53v107h-285v-107h53q22 0 38-15t16-38v-179q0-22-16-38t-38-16h-178q-23 0-38 16t-16 38z" horiz-adv-x="1000" />
<glyph glyph-name="plugin" unicode="&#xe843;" d="m0-7v571q1 0 10-2t19-2 12-2q83-14 136-14 45 0 66 20 25 24 25 49 0 13-8 29t-19 29-18 36-9 46q0 46 33 72t81 25q44 0 74-25t30-69q0-23-9-43t-21-33-22-31-9-40q0-32 23-47t57-14q36 0 101 8t91 9v-1q-1-1-2-9t-3-19-2-12q-13-84-13-137 0-45 19-65 25-26 50-26 12 0 28 8t30 19 36 19 46 8q46 0 71-33t26-80q0-45-25-75t-69-30q-23 0-43 10t-33 21-32 21-39 10q-62 0-62-69 0-22 9-65t8-64v-3q-12 0-18 0-19-2-54-7t-65-7-55-3q-34 0-57 15t-23 47q0 20 9 39t22 32 21 33 9 43q0 44-30 69t-75 25q-47 0-80-26t-33-71q0-24 9-46t18-36 19-30 8-28q0-25-25-50-21-19-66-19-53 0-136 13-5 1-16 2t-15 3l-7 1q-1 0-2 0-1 0-1 1z" horiz-adv-x="928.6" />
<glyph glyph-name="medico" unicode="&#xe844;" d="m0 421v286q0 15 11 25t25 11q3 0 9-1 9 16 26 27t36 10q30 0 51-21t21-51-21-50-51-21q-18 0-36 10v-225q0-59 53-101t126-41 126 41 53 101v225q-18-10-36-10-30 0-51 21t-21 50 21 51 51 21q19 0 36-10t26-27q6 1 9 1 15 0 25-11t11-25v-286q0-80-61-140t-153-72v-73q0-59 52-101t126-42 126 42 53 101v220q-32 12-52 39t-20 62q0 45 32 76t76 31 75-31 32-76q0-34-20-62t-52-39v-220q0-89-73-152t-177-63-176 63-74 152v73q-91 12-153 72t-61 140z m643 36q0-14 10-25t26-11 25 11 10 25-10 25-25 11-26-11-10-25z" horiz-adv-x="785.7" />
<glyph glyph-name="lanzar" unicode="&#xe845;" d="m20 252l125 214q6 8 15 9l211 11q54 64 98 109 105 104 200 144t241 40q7 0 13-6t6-12q0-139-43-241t-141-201q-45-44-109-98l-11-211q-1-9-9-15l-214-125q-4-2-9-2-7 0-13 5l-36 36q-7 7-4 17l47 155-156 156-155-47q-1-1-5-1-7 0-12 5l-36 36q-10 11-3 22z m676 348q0-22 16-38t38-16 38 16 16 38-16 38-38 16-38-16-16-38z" horiz-adv-x="928.6" />
<glyph glyph-name="chat" unicode="&#xe846;" d="m290 240l350 0q2 0 6 2l4 0 0-92q0-40-29-70t-71-30l-250 0-150-150 0 150-50 0q-40 0-70 30t-30 70l0 300q0 42 30 71t70 29l190 0 0-310z m610 560q42 0 71-29t29-71l0-300q0-40-29-70t-71-30l-50 0 0-150-150 150-350 0 0 400q0 42 30 71t70 29l450 0z" horiz-adv-x="1000" />
<glyph glyph-name="alerta" unicode="&#xe847;" d="m632 426q16-34 40-52t45-22 44-23 35-55q22-62-74-161t-252-157q-164-58-297-45t-155 75q-20 54 12 111t18 111q-56 192-47 300t113 192q26 22 29 51t29 39q24 8 46-12t56-18q132 2 198-66t160-268z m-186-404q88 32 159 85t100 91 25 50q-8 22-49 33t-124 1-187-48q-102-38-173-87t-94-84-17-53q4-12 50-22t134-4 176 38z m-62 174q8 2 21 7t17 7l2-2q14-40-17-83t-89-63q-96-36-152 14 78 68 218 120z" horiz-adv-x="800" />
<glyph glyph-name="comentar" unicode="&#xe848;" d="m700 700q42 0 71-29t29-71l0-350q0-40-29-70t-71-30l-200 0 0-150-200 150-200 0q-40 0-70 30t-30 70l0 350q0 42 30 71t70 29l600 0z" horiz-adv-x="800" />
<glyph glyph-name="atencion" unicode="&#xe849;" d="m0 350q0 95 37 182t100 149 149 100 183 37q95 0 182-37t149-100 100-149 37-182q0-95-37-182t-100-150-149-100-182-37q-96 0-183 37t-149 100-100 150-37 182z m117 0q0-96 47-177t128-128 177-47q95 0 176 47t128 128 47 177q0 95-47 176t-128 128-176 47q-72 0-137-28t-112-75-75-112-28-136z m271 196q-4 36 19 63t58 31q35 3 62-19t31-58q1-9 0-17l-27-244q-2-24-21-39t-43-13q-21 2-36 16t-17 36z m11-411q0 31 22 52 20 20 52 20t51-20q22-21 22-52t-22-52q-20-22-52-22-30 0-51 22-22 21-22 52z" horiz-adv-x="937.5" />
<glyph glyph-name="pregunta" unicode="&#xe84a;" d="m0 350q0 95 37 182t100 149 149 100 183 37q95 0 182-37t149-100 100-149 37-182q0-95-37-182t-100-150-149-100-182-37q-96 0-183 37t-149 100-100 150-37 182z m117 0q0-71 28-137t75-112 112-75 137-28 136 28 112 75 75 112 28 137q0 95-47 176t-128 128-176 47-177-47-128-128-47-176z m216 176l31-101q45 29 93 29 49 0 49-23 0-4-2-8t-3-5-6-5-7-5-8-4l-8-4-40-21q-22-12-28-25t-6-37v-37h117v16q0 7 0 10t3 6 6 5q1 1 11 5t17 8 19 11 18 13q19 17 29 37t11 55q0 49-42 83t-106 34q-83 0-148-37z m48-334q0-32 21-49t55-17q33 0 54 17t20 49-20 49-54 18q-35 0-55-18t-21-49z" horiz-adv-x="937.5" />
<glyph glyph-name="cronometro" unicode="&#xe84b;" d="m0 617l246 246 81-82-40-41 42-43q58 34 124 52v101h231v-101q99-26 178-90t124-158 45-200q0-94-36-180t-99-148-148-99-179-37-181 37-147 99-99 148-37 180q0 123 62 231l-44 44-41-41z m222-316q0-94 46-174t127-127 174-47 174 47 126 127 47 174-47 174-126 126-174 47-174-47-127-126-46-174z m118 130q0 24 16 41 17 17 41 17t41-17l140-140h198q24 0 41-17t16-41q0-25-17-40-17-18-40-18h-222q-3 0-11 1l-5 2q-1 0-3 1t-3 0q-1 1-3 2t-2 1l-5 3q-3 2-9 8l-157 156q-16 17-16 41z" horiz-adv-x="1031.7" />
<glyph glyph-name="agregar" unicode="&#xe84c;" d="m0 350q0 207 147 354t353 146 354-146 146-354-146-354-354-146-353 146-147 354z m219-80l201 0 0-201 160 0 0 201 201 0 0 160-201 0 0 201-160 0 0-201-201 0 0-160z" horiz-adv-x="1000" />
<glyph glyph-name="hoja" unicode="&#xe84d;" d="m0-96v892q0 23 16 38t38 16h500q22 0 49-11t42-27l174-174q16-16 27-42t11-50v-642q0-23-15-38t-38-16h-750q-23 0-38 16t-16 38z m71 17h715v572h-232q-23 0-38 15t-16 38v233h-429v-858z m500 643h210q-5 16-12 23l-175 175q-6 7-23 12v-210z" horiz-adv-x="857.1" />
<glyph glyph-name="pegar" unicode="&#xe84e;" d="m0 118v375q0 22 11 49t27 42l228 228q15 16 42 27t49 11h232q23 0 38-16t16-38v-183q38 23 71 23h232q23 0 38-16t16-38v-678q0-23-16-38t-38-16h-535q-23 0-38 16t-16 38v160h-303q-23 0-38 16t-16 38z m71 18h286v143q0 22 11 49t27 42l176 176v233h-214v-233q0-22-15-38t-38-15h-233v-357z m48 428h167v167z m310-643h500v643h-215v-232q0-22-15-38t-38-15h-232v-358z m47 429h167v167z" horiz-adv-x="1000" />
<glyph glyph-name="texto" unicode="&#xe84f;" d="m0-96v892q0 23 16 38t38 16h500q22 0 49-11t42-27l174-174q16-16 27-42t11-50v-642q0-23-15-38t-38-16h-750q-23 0-38 16t-16 38z m71 17h715v572h-232q-23 0-38 15t-16 38v233h-429v-858z m143 161v36q0 8 5 13t13 5h393q8 0 13-5t5-13v-36q0-8-5-13t-13-5h-393q-8 0-13 5t-5 13z m0 143v36q0 8 5 13t13 5h393q8 0 13-5t5-13v-36q0-8-5-13t-13-5h-393q-8 0-13 5t-5 13z m0 143v36q0 7 5 12t13 5h393q8 0 13-5t5-12v-36q0-8-5-13t-13-5h-393q-8 0-13 5t-5 13z m357 196h210q-5 16-12 23l-175 175q-6 7-23 12v-210z" horiz-adv-x="857.1" />
<glyph glyph-name="calendario" unicode="&#xe850;" d="m0-79v715q0 29 21 50t50 21h72v54q0 36 26 63t63 26h36q37 0 63-26t26-63v-54h214v54q0 36 27 63t63 26h35q37 0 63-26t27-63v-54h71q29 0 50-21t22-50v-715q0-29-22-50t-50-21h-786q-29 0-50 21t-21 50z m71 0h786v572h-786v-572z m143 679q0-8 5-13t13-5h36q8 0 13 5t5 13v161q0 8-5 13t-13 5h-36q-8 0-13-5t-5-13v-161z m429 0q0-8 5-13t13-5h35q8 0 13 5t5 13v161q0 8-5 13t-13 5h-35q-8 0-13-5t-5-13v-161z" horiz-adv-x="928.6" />
<glyph glyph-name="martillo" unicode="&#xe851;" d="m22 404q0 7 3 14t5 12 9 13 9 10 11 11 10 9q17 15 38 15 6 0 10 0t9-4 8-3 8-5 6-6 7-7 7-7q-8 8-8 19t8 19l194 194q8 8 19 8t19-8q-1 1-7 7t-7 7-6 7-5 7-3 8-4 9 0 10q0 21 15 38 2 1 9 10t11 11 10 9 13 9 12 5 14 3q23 0 38-16l228-228q16-15 16-38 0-7-3-14t-5-12-9-13-9-10-11-11-10-9q-17-15-38-15-6 0-10 0t-9 4-8 3-7 5-7 6-7 7-7 7q8-8 8-19t-8-19l-70-70 143-143q24 24 53 24 29 0 51-21l203-202q20-22 20-51 0-30-20-50l-60-61q-22-20-51-20-29 0-50 20l-203 204q-21 20-21 50 0 29 24 53l-143 143-70-70q-8-8-19-8t-19 8q1-1 7-7t7-7 6-7 5-7 4-8 3-9 0-10q0-21-15-38-2-1-9-10t-11-11-10-9-13-9-12-5-14-3q-23 0-38 16l-228 228q-16 15-16 38z" horiz-adv-x="1000" />
<glyph glyph-name="dividir" unicode="&#xe852;" d="m500 663c-69 0-125-56-125-125 0-47 25-86 63-108v-17c0 0 0-125-125-125-52 0-93-12-125-29v296c37 22 62 61 62 108 0 69-56 125-125 125s-125-56-125-125c0-47 25-86 63-108v-410c-38-21-63-61-63-107 0-70 56-126 125-126s125 56 125 126c0 32-13 62-33 84 18 22 47 41 96 41 248 0 250 250 250 250v17c37 22 62 61 62 108 0 69-56 125-125 125z m-375 62c35 0 63-28 63-62s-28-63-63-63-62 28-62 63 27 62 62 62z m0-750c-35 0-62 28-62 63 0 34 27 62 62 62s63-28 63-62c0-35-28-63-63-63z m375 500c-34 0-62 28-62 63s28 62 62 62 63-28 63-62-28-63-63-63z" horiz-adv-x="625" />
<glyph glyph-name="celular" unicode="&#xe853;" d="m719 850h-438c-51 0-93-42-93-94v-812c0-52 42-94 93-94h438c51 0 94 42 94 94v812c0 52-43 94-94 94z m-344-47h250v-31h-250v31z m125-891c-34 0-62 28-62 63s28 63 62 63 63-28 63-63-28-63-63-63z m250 188h-500v625h500v-625z" horiz-adv-x="1000" />
<glyph glyph-name="editar" unicode="&#xe854;" d="m846 731q66-66 66-157t-66-158l-512-513-316 0 1 317 511 511q66 66 158 66t158-66z m-559-716q32 32 32 79t-32 80-79 32-80-33l0-158 159 0z m477 479q33 32 33 79t-32 79-79 32-79-32z" horiz-adv-x="928" />
<glyph glyph-name="huella" unicode="&#xe855;" d="m0 491c0 29 14 43 43 43s43-14 43-43-14-43-43-43-43 13-43 43z m328 203c0 58 29 88 88 88s88-30 88-88-29-86-88-86-88 27-88 86z m-148-28c0 38 17 55 54 55s55-17 55-55-17-54-55-54-54 17-54 54z m306-556v0c18-22 26-47 26-74 0-34-10-61-33-84s-51-34-84-34c-26 0-49 6-69 22s-35 35-43 58l-148 256 2 2c-10 16-18 32-22 49-6 22-9 43-9 65 0 56 19 103 60 144s88 61 145 61c37 0 72-10 103-28s57-45 74-76 28-64 28-101c0-41-10-80-34-116v0c-11-21-17-45-17-68 0-27 6-53 21-76z m-410 472c0 30 14 45 43 45s43-15 43-45-14-42-43-42-43 13-43 42z" horiz-adv-x="515.6" />
<glyph glyph-name="localizar" unicode="&#xe856;" d="m924 375c14 0 25-11 25-25s-11-25-25-25h-74c-12-188-162-338-350-350v-74c0-14-12-26-25-26s-26 12-26 26v74c-187 12-336 162-347 350h-77c-13 0-25 11-25 25s12 25 25 25h77c11 188 160 338 347 350v74c0 14 12 26 26 26s25-12 25-26v-74c188-12 338-162 350-350h74z m-475-300v50c-105 12-187 94-199 200h-49c12-133 115-239 248-250z m0 500v0 50c-133-11-236-117-248-250h49c12 106 94 188 199 200z m51 50v-50c106-12 188-94 199-200h51c-12 133-117 239-250 250z m0-550c133 11 238 117 250 250h-51c-11-106-93-188-199-200v-50z" horiz-adv-x="949.2" />
<glyph glyph-name="datos" unicode="&#xe857;" d="m240 385c4-6 6-13 10-19l-103-47c-28-14-45-43-45-76v-110h-80c-12 0-22 12-22 26v105c0 10 6 20 14 24l134 62c-31 20-54 57-54 102 0 64 45 115 99 115 16 0 30-4 41-10-3-8-5-17-7-25-6-20-8-37-8-55 0-31 8-64 21-92z m321 117c-2 8-2 16-4 26-6 27-20 53-35 74h380v0 0c10 0 18-8 18-18v0-64 0c0-10-8-18-18-18v0 0h-341z m359-316v0-64 0c0-10-8-18-18-18v0 0h-222v8 21 71h222v0 0c10 0 18-8 18-18z m-18 217c10 0 18-8 18-18v0-64 0c0-10-8-18-18-18v0 0h-246c-6 6-13 12-21 16l-104 49c4 7 10 13 14 21 2 4 2 10 4 14h353v0 0z m-289-129c10-6 18-18 18-31v-110-21c0-18-12-31-27-31h-426c-16 0-28 13-28 31v21 110c0 13 8 27 18 31l119 55 47 21c-21 14-37 33-49 57-10 21-17 45-17 70 0 16 2 27 5 41 16 59 63 102 118 102 56 0 103-43 117-104 4-12 6-25 6-39 0-23-6-47-16-66-12-26-27-45-49-59l49-23z" horiz-adv-x="919.9" />
<glyph glyph-name="imagen" unicode="&#xe858;" d="m0-96v892q0 23 16 38t38 16h500q22 0 49-11t42-27l174-174q16-16 27-42t11-50v-642q0-23-15-38t-38-16h-750q-23 0-38 16t-16 38z m71 17h715v572h-232q-23 0-38 15t-16 38v233h-429v-858z m72 72v107l107 107 71-71 215 214 178-179v-178h-571z m0 393q0 44 31 76t76 31 76-31 31-76-31-76-76-31-76 31-31 76z m428 178h210q-5 16-12 23l-175 175q-6 7-23 12v-210z" horiz-adv-x="857.1" />
<glyph glyph-name="no" unicode="&#xe859;" d="m0 352q0 87 34 167t91 137 137 91 167 34 166-34 137-91 91-137 34-167-34-168-91-137-137-92-166-34-167 34-137 92-91 137-34 168z m125 0q0-91 50-167l421 421q-75 50-167 50-83 0-153-40t-110-112-41-152z m138-256q76-50 166-50 62 0 118 25t96 65 65 97 24 119q0 90-48 164z" horiz-adv-x="857.1" />
<glyph glyph-name="archivo" unicode="&#xe85a;" d="m840 600l0-50-696 0 0 50q0 22 13 35t25 15l608 0q6 0 14-1t22-14 14-35z m-148 150q6 0 14-1t22-14 14-35l-498 0q0 22 13 35t25 15l410 0z m248-200q34-32 38-46 6-18 0-54l-76-450q-4-22-20-35t-28-15l-710 0q-52 0-60 50-6 26-39 223t-39 227q-10 22-3 44t10 26 21 20l10 10 30 30 0-80 836 0 0 80z m-248-270l0 100-70 0 0-80-260 0 0 80-68 0 0-100q0-50 48-50l300 0q22 0 35 12t13 24z" horiz-adv-x="981" />
<glyph glyph-name="imprimir" unicode="&#xe85b;" d="m0 82v232q0 44 32 76t75 31h36v304q0 22 16 38t37 16h375q23 0 50-12t42-26l85-85q15-16 27-43t11-49v-143h35q45 0 76-31t32-76v-232q0-7-6-12t-12-6h-125v-89q0-22-16-38t-38-16h-536q-22 0-37 16t-16 38v89h-125q-7 0-13 6t-5 12z m214-89h500v143h-500v-143z m0 357h500v214h-89q-22 0-38 16t-16 38v89h-357v-357z m572-36q0-14 10-25t25-10 26 10 10 25-10 25-26 11-25-11-10-25z" horiz-adv-x="928.6" />
<glyph glyph-name="reiniciar" unicode="&#xe85c;" d="m0-7v250q0 14 11 25t25 11h250q14 0 25-11t10-25-10-25l-77-77q40-37 90-57t105-20q74 0 139 37t104 99q6 10 29 66 5 13 17 13h107q8 0 13-6t5-12q0-3 0-4-36-150-150-243t-267-93q-81 0-157 31t-136 88l-72-72q-11-11-25-11t-25 11-11 25z m10 446v4q36 150 151 243t268 93q81 0 158-31t137-88l72 72q11 11 25 11t26-11 10-25v-250q0-14-10-25t-26-11h-250q-14 0-25 11t-10 25 10 25l77 77q-82 77-194 77-75 0-140-37t-104-99q-6-10-29-66-5-13-17-13h-111q-7 0-13 6t-5 12z" horiz-adv-x="857.1" />
<glyph glyph-name="atras" unicode="&#xe85d;" d="m0 350q0 117 58 215t155 156 216 58 215-58 156-156 57-215-57-215-156-156-215-58-216 58-155 156-58 215z m140 0q0-15 10-25l51-51 202-202q10-10 25-10t25 10l51 51q10 10 10 25t-10 25l-106 106h281q14 0 25 10t10 25v72q0 14-10 25t-25 10h-281l106 106q11 11 11 25t-11 25l-51 51q-10 10-25 10t-25-10l-202-202-51-51q-10-10-10-25z" horiz-adv-x="857.1" />
<glyph glyph-name="adelante" unicode="&#xe85e;" d="m0 350q0 117 58 215t155 156 216 58 215-58 156-156 57-215-57-215-156-156-215-58-216 58-155 156-58 215z m143-36q0-14 11-25t25-10h280l-106-106q-10-10-10-25t10-25l51-51q10-10 25-10t25 10l202 202 51 51q10 10 10 25t-10 25l-51 51-202 202q-10 10-25 10t-25-10l-51-51q-10-10-10-25t10-25l106-106h-280q-15 0-25-10t-11-25v-72z" horiz-adv-x="857.1" />
<glyph glyph-name="lapiz1" unicode="&#xe85f;" d="m0-79v233l464 464 232-232-464-465h-232z m71 143h72v-71h60l50 51-131 131-51-51v-60z m95 143q0-12 13-12 5 0 9 4l303 302q3 4 3 10 0 12-12 12-5 0-9-4l-303-302q-4-4-4-10z m334 447l93 92q20 21 50 21 29 0 51-21l131-131q20-22 20-51 0-29-20-50l-93-93z" horiz-adv-x="857.1" />
</font>
</defs>
</svg>